4 4 0.0530884
0.00068837 6.1892e-05 6.71369e-05 4.08879e-05 1.6093e-05 -9.81048e-07 2.46096e-08
3.593e-05 6.54728e-05 7.10275e-05 4.32466e-05 1.70247e-05 -1.03789e-06 2.60186e-08
1.705e-05 6.54751e-05 7.10299e-05 4.32473e-05 1.70261e-05 -1.03793e-06 2.602e-08
1.698e-05 6.54798e-05 7.10353e-05 4.32497e-05 1.70278e-05 -1.03787e-06 2.60192e-08
